// Jest Snapshot v1, https://goo.gl/fbAQLP

exports[`container should match snapshot 1`] = `
<View
  style={
    Object {
      "flex": 1,
    }
  }
>
  <View
    accessibilityIgnoresInvertColors={true}
    style={
      Object {
        "alignItems": "center",
        "flex": 4,
        "justifyContent": "flex-end",
      }
    }
  >
    <Image
      resizeMode="contain"
      source={
        Object {
          "testUri": "../../../src/assets/shared/react.png",
        }
      }
      style={
        Array [
          Object {
            "bottom": 0,
            "left": 0,
            "position": "absolute",
            "right": 0,
            "top": 0,
          },
          Object {
            "height": undefined,
            "width": undefined,
          },
          undefined,
        ]
      }
    />
    <View
      style={
        Object {
          "alignSelf": "center",
          "flexDirection": "row",
          "justifyContent": "center",
          "maxWidth": 525,
        }
      }
    >
      <Image
        resizeMode="contain"
        source={
          Object {
            "testUri": "../../../src/assets/shared/4all.png",
          }
        }
        style={
          Object {
            "flex": 1,
          }
        }
      />
      <Text
        style={
          Object {
            "color": "#fcfcfc",
            "flex": 5,
            "fontFamily": "Montserrat",
            "fontSize": 12,
            "fontStyle": "normal",
            "fontWeight": "normal",
            "letterSpacing": 0,
            "marginLeft": 10,
          }
        }
      >
        Bem vindo ao workshop de testes react-native
      </Text>
    </View>
  </View>
  <View
    style={
      Object {
        "alignItems": "center",
        "alignSelf": "center",
        "flex": 2,
        "justifyContent": "flex-start",
        "marginTop": 20,
        "paddingHorizontal": 64,
      }
    }
  >
    <View
      style={
        Object {
          "backgroundColor": "#fff",
          "borderTopEndRadius": 10,
          "borderTopStartRadius": 10,
          "flexDirection": "row",
        }
      }
    >
      <TextInput
        allowFontScaling={true}
        autoComplete="email"
        name="email"
        onChangeText={[Function]}
        placeholder="Endereço de Email"
        style={
          Object {
            "flex": 1,
            "marginLeft": 10,
            "minHeight": 41,
          }
        }
        underlineColorAndroid="transparent"
      />
    </View>
    <View
      style={
        Object {
          "backgroundColor": "#fff",
          "borderBottomEndRadius": 10,
          "borderBottomStartRadius": 10,
          "flexDirection": "row",
        }
      }
    >
      <TextInput
        allowFontScaling={true}
        autoComplete="password"
        name="password"
        onChangeText={[Function]}
        placeholder="Senha"
        secureTextEntry={true}
        style={
          Object {
            "flex": 1,
            "marginLeft": 10,
            "minHeight": 41,
          }
        }
        underlineColorAndroid="transparent"
      />
    </View>
    <View
      accessible={true}
      isTVSelectable={true}
      onResponderGrant={[Function]}
      onResponderMove={[Function]}
      onResponderRelease={[Function]}
      onResponderTerminate={[Function]}
      onResponderTerminationRequest={[Function]}
      onStartShouldSetResponder={[Function]}
      style={
        Object {
          "alignSelf": "flex-end",
          "marginTop": 3,
          "opacity": 1,
        }
      }
    >
      <Text
        style={
          Object {
            "color": "#fcfcfc",
            "fontFamily": "Montserrat",
            "fontSize": 14,
            "fontStyle": "normal",
            "fontWeight": "bold",
            "letterSpacing": 0,
          }
        }
      >
        Esqueceu sua senha?
      </Text>
    </View>
  </View>
  <View
    style={
      Object {
        "flex": 1,
        "paddingHorizontal": 64,
      }
    }
  >
    <View
      style={
        Object {
          "alignSelf": "center",
          "flex": 1,
          "marginBottom": 15,
          "minHeight": 41,
        }
      }
    >
      <View
        accessible={true}
        isTVSelectable={true}
        onResponderGrant={[Function]}
        onResponderMove={[Function]}
        onResponderRelease={[Function]}
        onResponderTerminate={[Function]}
        onResponderTerminationRequest={[Function]}
        onStartShouldSetResponder={[Function]}
        style={
          Object {
            "alignSelf": "center",
            "borderRadius": 5,
            "flex": 1,
            "flexDirection": "row",
            "maxHeight": 78.75,
            "opacity": 1,
          }
        }
      >
        <BVLinearGradient
          colors={
            Array [
              4279369948,
              4279959600,
            ]
          }
          endPoint={
            Object {
              "x": 0.5,
              "y": 1,
            }
          }
          locations={null}
          startPoint={
            Object {
              "x": 0.5,
              "y": 0,
            }
          }
          style={
            Object {
              "alignItems": "center",
              "borderColor": "#fff",
              "borderRadius": 5,
              "borderWidth": 1,
              "flex": 1,
              "justifyContent": "center",
            }
          }
        >
          <Text
            style={
              Object {
                "color": "#ffffff",
                "fontFamily": "Montserrat",
                "fontSize": 16,
                "fontStyle": "normal",
                "fontWeight": "bold",
                "letterSpacing": 0,
              }
            }
          >
            Entrar
          </Text>
        </BVLinearGradient>
      </View>
      <View
        accessible={true}
        isTVSelectable={true}
        onResponderGrant={[Function]}
        onResponderMove={[Function]}
        onResponderRelease={[Function]}
        onResponderTerminate={[Function]}
        onResponderTerminationRequest={[Function]}
        onStartShouldSetResponder={[Function]}
        style={
          Object {
            "alignSelf": "flex-start",
            "marginTop": 3,
            "opacity": 1,
          }
        }
      >
        <Text
          style={
            Object {
              "color": "#fcfcfc",
              "fontFamily": "Montserrat",
              "fontSize": 14,
              "fontStyle": "normal",
              "fontWeight": "bold",
              "letterSpacing": 0,
            }
          }
        >
          Ainda não tem conta?
        </Text>
      </View>
    </View>
  </View>
</View>
`;
